{
	"application_title": {
		"message": "PassMaker - найкращий генератор паролів."
	},
	"application_description": {
		"message": "Інструмент для створення безпечних паролів. З широкими можливостями кастомізації. З відкритим кодом https://bit.ly/3beopup"
	},
	"pop_copied":{
		"message": "Скопійовано!"
	},
	"btn_copy_to_clipboard":{
		"message": "Копіювати"
	},
	"btn_new_password":{
		"message": "Новий пароль"
	},
	"lbl_size":{
		"message": "Довжина"
	},
	"lbl_include":{
		"message": "Включити"
	},
	"lbl_letters":{
		"message": "Літери"
	},
	"lbl_numbers":{
		"message": "Цифри"
	},
	"lbl_symbols":{
		"message": "Символи"
	},
	"lbl_extra_symbols":{
		"message": "Ще символи"
	},
	"lbl_exclude":{
		"message": "Виключити"
	},
	"btn_reset":{
		"message": "Скид"
	},
	"btn_settings_hide":{
		"message": "Сховати налаштування"
	},
	"btn_settings_show":{
		"message": "Показати налаштування"
	},
	"p_privacy":{
		"message": "Плаґін не відслідковуе Ваші дії та не поширюе Ваші данні чи створені паролі."
	}
}
